{
	"multipart": [
		{ "apply": {"model": "biom4st3rmts:block/t1cableblockmiddle" }},
		{ "when": { "down": "true"}, "apply": { "model": "biom4st3rmts:block/t1cableblockarm", "texture":"biom4st3rmts:block/basicenergyblock", "x": 90 }},
		{ "when": { "up": "true" }, "apply": { "model": "biom4st3rmts:block/t1cableblockarm", "x": 270}},
		{ "when": { "south": "true" }, "apply": { "model": "biom4st3rmts:block/t1cableblockarm", "y": 180 }},
		{ "when": { "north": "true" }, "apply": { "model": "biom4st3rmts:block/t1cableblockarm" }},
		{ "when": { "west": "true" }, "apply": { "model": "biom4st3rmts:block/t1cableblockarm", "y": 270 }},
		{ "when": { "east": "true" }, "apply": { "model": "biom4st3rmts:block/t1cableblockarm", "y": 90 }}
	]
}
